DS Project
…
  # Previously
  across(a:b, mean, na.rm = TRUE)

  # Now
  across(a:b, \(x) mean(x, na.rm = TRUE))

Code

state_costs

# A tibble: 49 × 5
   state_name            mcsa mc_infant mc_toddler mc_preschool
   <chr>                <dbl>     <dbl>      <dbl>        <dbl>
 1 Alabama               92.2      106.       106.         96.8
 2 Alaska               167.       202.       197.        166. 
 3 Arizona              120.       165.       146.        132. 
 4 Arkansas              82.8      105.       101.         92.2
 5 California           159.       271.       194.        194. 
 6 Colorado             170.       226.       200.        176. 
 7 Connecticut           93.2      253.       253.        211. 
 8 Delaware              71.2      176.       157.        143. 
 9 District of Columbia 249.       304.       253.        238. 
10 Florida               95.6      145.       123.        111. 
# … with 39 more rows
…
